<?xml version="1.0" encoding="UTF-8"?>
<svg width="24px" height="24px" viewBox="0 0 24 24" version="1.1" xmlns="http://www.w3.org/2000/svg" xmlns:xlink="http://www.w3.org/1999/xlink">
    <!-- Generator: Sketch 54.1 (76490) - https://sketchapp.com -->
    <title>icon/cloud</title>
    <desc>Created with Sketch.</desc>
    <defs>
        <polygon id="path-1" points="0 0.0002 18.8715913 0.0002 18.8715913 14.3571706 0 14.3571706"></polygon>
    </defs>
    <g id="icon/cloud" stroke="none" stroke-width="1" fill="none" fill-rule="evenodd">
        <g id="Group-3" transform="translate(3.000000, 5.000000)">
            <mask id="mask-2" fill="white">
                <use xlink:href="#path-1"></use>
            </mask>
            <g id="Clip-2"></g>
            <path d="M18.8709,10.15 C18.8189,11.266 18.2969,12.384 17.4059,13.142 C16.9629,13.521 16.4319,13.809 15.8559,13.965 C15.5679,14.043 15.2699,14.084 14.9709,14.101 L14.1629,14.13 L7.7139,14.301 L4.4829,14.357 C3.1999,14.369 1.9389,13.747 1.1289,12.774 C0.3029,11.806 -0.0901,10.503 0.0169,9.249 C0.1179,7.99 0.7269,6.764 1.7229,5.945 C2.1409,5.555 3.1009,5.163 2.8409,5.28 L2.8389,5.214 L2.8369,5.181 L2.8479,4.959 C2.8559,4.649 2.9029,4.34 2.9639,4.037 C3.2179,2.818 3.9269,1.695 4.9349,0.949 C5.9389,0.193 7.2569,-0.137 8.4949,0.052 C9.7409,0.23 10.8719,0.946 11.6019,1.922 C11.7769,2.141 12.0009,2.521 12.0099,2.559 C12.0539,2.641 12.0519,2.702 12.0819,2.744 C12.1149,2.713 12.1559,2.681 12.2059,2.652 L12.4509,2.516 C12.5769,2.453 12.7059,2.395 12.8389,2.349 C13.3709,2.156 13.9469,2.116 14.4939,2.215 C15.6009,2.404 16.5269,3.21 16.9269,4.192 C17.1329,4.672 17.2299,5.239 17.1959,5.712 C17.1829,5.858 17.0939,6.06 17.2509,6.1 L17.3329,6.168 C17.3829,6.207 17.4309,6.248 17.4769,6.292 C17.5729,6.376 17.6619,6.465 17.7479,6.558 C18.4339,7.3 18.8269,8.276 18.8609,9.249 C18.8729,9.541 18.7869,9.726 18.7069,9.67 C18.6409,9.628 18.6029,9.467 18.5669,9.277 C18.4309,8.38 17.9799,7.556 17.3329,6.976 C17.2519,6.904 17.1699,6.834 17.0819,6.771 C17.0399,6.737 16.9959,6.706 16.9509,6.677 L16.7439,6.543 C16.3229,6.418 16.4859,6.052 16.4799,5.748 C16.4789,5.283 16.3619,4.909 16.1799,4.538 C15.8159,3.811 15.0989,3.293 14.3389,3.214 C13.9599,3.169 13.5709,3.218 13.2269,3.366 C13.1399,3.401 13.0569,3.444 12.9759,3.491 L12.8559,3.565 L12.6279,3.738 C12.3169,4.031 11.9739,4.462 11.6709,4.807 C11.4919,4.407 11.3099,3.845 11.1099,3.43 C10.8779,2.969 10.8019,2.894 10.6359,2.684 C10.0469,1.969 9.2009,1.487 8.3099,1.389 C7.4159,1.284 6.5009,1.537 5.7949,2.088 C5.0849,2.635 4.5789,3.452 4.4069,4.342 C4.3649,4.565 4.3309,4.79 4.3289,5.017 L4.3219,5.198 L4.3449,5.566 L4.3899,6.304 C3.1339,6.735 3.0759,6.802 2.6739,7.105 C2.0009,7.653 1.5689,8.491 1.4889,9.376 C1.4049,10.263 1.6709,11.175 2.2309,11.857 C2.7859,12.542 3.6209,12.977 4.4959,12.998 L7.7139,13.058 L14.1629,13.228 L14.9659,13.255 C15.2039,13.259 15.4419,13.245 15.6779,13.201 C16.1489,13.112 16.6039,12.917 17.0049,12.631 C17.8109,12.064 18.3839,11.139 18.5509,10.116 C18.5909,9.827 18.6809,9.631 18.7679,9.69 C18.8309,9.735 18.8779,9.923 18.8709,10.15" id="Fill-1" fill="#000000" mask="url(#mask-2)"></path>
        </g>
    </g>
</svg>