<?xml version="1.0" encoding="UTF-8"?>
<svg width="24px" height="24px" viewBox="0 0 24 24" version="1.1" xmlns="http://www.w3.org/2000/svg" xmlns:xlink="http://www.w3.org/1999/xlink">
    <!-- Generator: Sketch 54.1 (76490) - https://sketchapp.com -->
    <title>icon/email</title>
    <desc>Created with Sketch.</desc>
    <defs>
        <polygon id="path-1" points="0 0.587038336 21.277 0.587038336 21.277 13.999842 0 13.999842"></polygon>
    </defs>
    <g id="icon/email" stroke="none" stroke-width="1" fill="none" fill-rule="evenodd">
        <g id="Group-6" transform="translate(1.000000, 4.000000)">
            <g id="Group-3" transform="translate(0.000000, 0.412700)">
                <mask id="mask-2" fill="white">
                    <use xlink:href="#path-1"></use>
                </mask>
                <g id="Clip-2"></g>
                <path d="M19.4297,13.4991 C14.2937,13.7451 9.1587,13.8741 4.0227,13.9601 L2.0967,13.9921 L1.6157,13.9991 C1.5627,13.9991 1.4027,14.0061 1.2517,13.9771 C1.1047,13.9491 0.9617,13.8991 0.8287,13.8291 C0.5667,13.6861 0.3477,13.4641 0.2167,13.1921 C0.1507,13.0581 0.1037,12.9111 0.0837,12.7621 C0.0717,12.6931 0.0707,12.6011 0.0687,12.5501 L0.0667,12.4301 L0.0297,8.5781 L0.0077,4.7271 L0.0017,2.8001 L-0.0003,2.3191 L0.0017,2.0461 C0.0077,1.8901 0.0387,1.7311 0.0947,1.5831 C0.2957,0.9821 0.9487,0.5631 1.5427,0.5881 C6.6787,0.6011 11.8147,0.6271 16.9507,0.7241 L18.8757,0.7591 L19.8387,0.7781 C19.9417,0.7731 20.3307,0.7881 20.5477,0.9201 C20.7957,1.0421 20.9967,1.2431 21.1257,1.4831 C21.1887,1.6041 21.2337,1.7351 21.2577,1.8691 C21.2837,2.0061 21.2767,2.1491 21.2757,2.2071 L21.2637,2.6891 L21.2407,3.6521 L21.1877,5.5781 L21.0597,9.4301 L20.9817,11.3551 L20.9397,12.3181 C20.9287,12.4661 20.9427,12.6481 20.8737,12.8481 C20.8067,13.0321 20.6837,13.1931 20.5257,13.3011 C20.1697,13.5271 19.9017,13.3751 19.9847,13.3091 C20.0337,13.2481 20.2027,13.1921 20.3477,13.0641 C20.4487,12.9811 20.5167,12.8661 20.5487,12.7461 C20.5797,12.6351 20.5587,12.4901 20.5537,12.3181 L20.5117,11.3551 L20.4337,9.4301 L20.3047,5.5781 L20.2527,3.6521 L20.2287,2.6891 L20.2177,2.2071 C20.2157,2.1051 20.2147,2.0871 20.2077,2.0671 C20.2007,2.0431 20.1907,2.0211 20.1787,2.0001 C20.1507,1.9611 20.1127,1.9261 20.0697,1.9111 C19.9977,1.8931 20.0547,1.8951 19.8387,1.8981 L18.8757,1.9181 L16.9507,1.9531 C11.8147,2.0491 6.6787,2.0761 1.5427,2.0881 C1.4897,2.0871 1.5107,2.0941 1.4967,2.1031 L1.4947,2.1111 L1.4927,2.3191 L1.4917,2.8001 L1.4857,4.7271 L1.4637,8.5781 L1.4267,12.4301 L1.4257,12.5791 C1.4247,12.5891 1.4277,12.5981 1.4307,12.6071 C1.4357,12.6271 1.4527,12.6451 1.4697,12.6581 L1.4987,12.6721 C1.5067,12.6751 1.5077,12.6761 1.6157,12.6781 L2.0967,12.6851 L4.0227,12.7171 C9.1587,12.8031 14.2937,12.9321 19.4297,13.1781 C19.7947,13.1951 20.0317,13.2811 19.9597,13.3701 C19.9057,13.4371 19.6897,13.4871 19.4297,13.4991" id="Fill-1" fill="#000000" mask="url(#mask-2)"></path>
            </g>
            <path d="M20.6748,2.0143 C19.2008,3.5093 17.6528,4.9113 16.0788,6.2813 C14.6238,7.5563 13.1738,8.7513 11.6378,9.9943 C11.3808,10.2003 11.0558,10.3143 10.7288,10.3093 C10.4708,10.3063 10.2158,10.2303 9.9958,10.0943 C9.7338,9.9103 9.7228,9.8803 9.5968,9.7853 L8.9918,9.2903 L7.7848,8.2953 C6.9838,7.6293 6.1888,6.9533 5.4048,6.2643 C3.8318,4.8933 2.2848,3.4893 0.8118,1.9933 C0.7168,1.8953 0.6968,1.7783 0.7688,1.7313 C0.8228,1.6963 0.9138,1.7113 0.9968,1.7623 C2.7798,2.8703 4.4898,4.0713 6.1728,5.3053 C7.0168,5.9183 7.8498,6.5453 8.6768,7.1813 L10.7468,8.7903 L10.7478,8.7933 C12.2118,7.6383 13.7588,6.4343 15.3018,5.3103 C16.9838,4.0763 18.6918,2.8733 20.4738,1.7633 C20.6008,1.6843 20.7298,1.6913 20.7618,1.7793 C20.7868,1.8453 20.7498,1.9383 20.6748,2.0143" id="Fill-4" fill="#000000"></path>
        </g>
    </g>
</svg>